1	421	0	129
2	276	1	264
3	394	2	158
3	420	0	140
2	280	0	246
3	278	0	244
1	380	2	138
3	477	0	55
1	484	2	30
3	497	1	55
1	288	3	266
3	408	1	124
1	454	3	100
1	421	2	101
3	405	1	103
0	460	3	94
0	506
1	514	0	4
3	552	1	4
1	552	3	6
0	550
1	422	0	116
2	540	1	16
2	452	1	86
2	280	1	270
2	437	0	89
3	391	2	169
1	394	0	114
3	328	0	232
1	267	0	261
3	256	1	252
2	438	3	116
3	387	1	163
1	454	2	100
3	302	1	248
2	413	0	135
2	289	0	273
1	532	3	26
2	396	0	136
3	416	1	136
2	384	0	168
3	478	1	74
0	544	2	16
0	522	3	34
3	453	0	107
2	471	0	81
2	432	1	120
2	294	0	264
2	364	0	114
1	468	3	62
1	544	3	10
2	446	0	100
0	410	3	136
1	318	2	230
0	448	2	110
2	498	0	34
3	339	1	205
2	371	0	119
3	285	1	263
3	526	2	28
2	359	0	161
0	546	1	10
2	279	1	241
2	431	3	123
1	430	2	130
2	393	0	115
2	528	0	34
1	514	3	42
2	552
1	359	3	187
2	544	0	8
2	282	3	272
1	269	0	257
2	325	3	219
2	378	0	176
1	444	2	100
2	430	0	122
1	538	2	16
2	302	1	228
2	490	3	44
1	310	2	216
1	306	2	204
1	444	3	88
2	480	1	76
2	486	1	46
1	524	0	36
1	442	3	86
2	515	0	17
1	496	3	64
2	454	3	104
0	270	3	248
2	296	0	248
1	288	3	260
1	486	0	32
2	524	0	18
2	274	1	228
0	382	3	172
0	387	2	155
2	554
2	514	3	44
1	284	3	278
1	496	3	50
0	352	2	192
2	442	0	106
0	426	2	106
0	450	3	100
1	534	2	26
1	403	0	155
1	501	3	53
0	496	2	54
2	519	0	23
1	534
3	296	1	252
3	304	1	214
2	305	0	239
1	412	3	122
2	364	3	156
2	464	1	60
2	518	1	38
1	328	3	228
3	542	1	16
0	406	3	144
2	393	0	163
1	380	3	154
0	397	1	165
1	461	3	87
1	412	3	112
1	552	3	2
2	432	1	52
0	358	2	172
1	415	3	135
0	444	1	88
2	464	0	54
0	441	3	119
1	484	3	76
1	508	2	50
2	521	1	9
1	386	0	160
2	381	0	129
2	436	0	96
0	434	2	116
1	478	0	74
0	542	2	18
3	544	1	10
1	350	0	198
0	543	2	1
1	344	2	184
1	504	0	48
2	372	3	156
1	458	3	92
0	427	3	127
0	532
3	540	1	16
3	348	1	200
3	540	0	18
2	378	0	170
1	504	3	52
2	489	0	29
0	403	3	121
3	310	1	240
3	498	0	24
3	552
1	374	2	124
0	554
2	534
0	429	1	63
0	324	1	238
1	520	3	16
0	406	2	116
0	461	3	77
1	440	3	66
3	309	1	205
0	423	2	109
2	366	1	160
1	442	3	68
0	304	1	256
1	296	3	230
2	387	0	131
1	500	3	56
2	356	3	148
1	402	2	148
1	376	3	144
2	453	1	77
0	332	2	212
1	506	3	52
3	460	1	90
2	466	0	88
2	303	0	239
3	540
0	555	3	1
2	285	0	275
0	505	2	45
2	523	0	31
1	465	3	97
1	552
2	292	0	264
2	298	1	258
2	510	0	46
2	528	1	20
2	496	1	62
3	326	2	220
1	530	3	24
3	426	1	118
1	530	3	28
3	396	1	160
2	462	1	40
0	528
1	558
1	367	3	167
3	307	1	207
2	530	0	4
1	558
1	508	3	6
1	536
2	313	1	225
0	379	2	173
2	501	0	57
2	436	0	114
0	349	1	169
3	518	0	24
2	432	1	46
2	534	0	26
1	478	0	78
1	361	0	187
2	297	0	219
2	486	3	60
2	319	0	229
2	510	0	46
3	377	1	157
1	511	3	23
2	548
2	508	3	14
3	538	2	8
2	485	1	27
0	552	3	2
0	500	2	14
2	556	0	2
2	366	0	188
3	326	1	228
1	454	3	62
2	342	0	210
2	450	0	64
1	552	3	4
2	332	0	200
1	524	2	6
1	460	2	76
2	433	0	115
0	530	3	24
2	437	0	95
2	509	1	27
2	379	0	163
3	395	1	147
2	541	0	21
1	437	0	125
0	413	2	117
1	546
1	486	3	58
2	554	1	4
3	532	1	20
3	468	0	78
1	354	0	200
2	466	0	76
0	412	2	142
0	420	2	134
2	370	1	176
1	378	2	176
2	308	3	226
3	464	1	82
1	446	3	104
0	538	2	22
0	464	2	72
2	532
3	344	2	206
3	288	0	262
2	438	0	76
0	484	1	60
3	315	1	241
0	390	2	100
2	481	1	43
3	281	1	271
1	464	3	90
1	516	3	16
0	460	2	80
2	466	0	44
0	404	2	136
3	276	2	272
1	396	0	126
2	333	0	219
2	482	0	70
1	298	2	260
1	377	3	177
0	320	2	240
1	490	3	18
0	292	2	260
2	535	0	27
3	368	1	188
0	470	2	82
0	512	3	46
2	400	0	140
1	353	0	203
3	434	2	126
3	462	0	48
1	479	3	77
1	412	3	126
3	500	1	56
0	396	3	160
1	520
2	550	0	8
1	370	3	192
0	538	2	8
1	481	3	77
2	490	1	66
2	312	1	236
2	474	0	82
1	518	3	42
2	552	0	8
3	380	2	168
3	512	2	46
1	396	3	120
0	473	2	83
0	307	2	231
3	360	1	182
0	330	2	200
1	372	2	138
3	406	1	92
0	408	1	110
1	472	3	76
2	317	0	235
0	284	2	238
0	477	2	5
3	390	1	168
0	387	3	167
0	522	2	8
3	395	1	167
0	558
0	306	2	244
0	364	3	194
0	474	2	50
1	310	3	246
2	420	1	130
1	534	3	12
3	554
1	427	3	117
1	433	3	123
0	433	2	119
1	404	3	114
0	476	3	78
1	512	2	46
1	430	3	116
3	453	2	101
2	503	0	29
0	414	3	98
0	405	2	147
0	494	1	60
2	457	0	77
2	378	0	164
3	400	1	158
3	298	0	230
1	514	0	44
2	436	1	124
1	350	0	186
1	323	3	189
2	372	0	190
2	309	0	237
1	476	3	84
0	530	3	10
3	415	2	127
3	386	1	162
1	452	3	102
1	493	3	61
3	380	1	168
1	281	3	271
3	524
0	277	2	275
2	342	0	174
1	387	2	109
1	474	0	50
1	556	0	2
2	398	0	136
2	340	0	214
1	310	3	252
0	356	3	124
1	367	3	185
0	365	3	175
1	504	3	52
3	402	1	108
2	516	3	14
1	516
3	532
2	498	1	52
2	493	1	65
2	480	3	56
3	553	1	1
2	377	0	173
2	481	3	57
0	439	1	63
3	491	2	49
0	519	2	7
2	531	0	5
1	516	3	12
0	506	2	44
2	464	0	42
1	510	3	42
0	362	2	150
0	443	2	101
2	356	0	146
3	466	2	64
1	434	2	126
0	320	2	236
3	530	0	6
3	464	1	96
3	450	1	100
3	402	2	144
3	381	0	141
3	433	0	109
1	452	3	86
1	398	3	156
3	454	1	84
3	532	2	26
1	500	2	58
0	414	2	138
2	344	0	198
0	388	2	168
1	254	0	204	2	29	3	25
2	480	3	46
2	475	0	59
2	522	0	36
3	352	0	176
0	255	2	253
3	316	0	182
1	447	3	107
0	472	2	82
3	524	1	26
0	443	2	111
0	497	2	47
1	413	0	137
0	319	2	225
0	520
2	532
3	336	1	224
3	514	1	46
0	390	2	164
1	448	3	70
1	392	0	140
0	442	2	92
3	317	1	233
0	280	3	220
2	488	0	62
1	481	3	77
2	313	0	207
3	339	1	209
0	408	2	152
2	392	1	150
3	474	1	78
3	390	0	162
1	398	2	158
3	540	1	16
0	337	2	217
0	494	2	36
1	518	3	8
3	330	2	230
1	518	2	34
2	510	0	18
3	474	1	76
2	482	0	60
3	540	1	16
2	542	0	16
2	528	0	18
2	452	1	106
0	426	2	128
0	332	2	224
0	373	3	167
2	496	3	56
3	485	1	51
2	295	3	267
0	310	3	248
0	428	2	130
2	466	0	86
3	450	1	80
0	378	1	152
2	510	0	22
2	394	1	160
2	387	0	173
1	546	3	2
1	322	2	168
2	355	1	173
3	360	0	186
2	321	0	187
1	438	2	104
1	326	3	220
2	288	0	258
1	549	3	13
0	452	3	102
3	313	0	241
0	282	1	270
1	302	2	244
1	485	3	39
3	435	1	117
1	558
1	516	2	44
1	524	2	32
2	294	0	230
3	358	1	196
1	431	0	95
1	482	3	44
2	524	0	32
0	469	1	93
1	526	3	14
2	309	0	191
3	454	1	96
1	446	0	100
2	439	3	117
2	468	0	62
2	486	0	64
2	346	1	208
2	291	3	245
1	294	3	254
2	456	1	88
2	319	0	191
3	355	1	185
2	548
2	342	0	198
1	450	3	100
2	287	3	225
1	506	2	34
1	377	0	173
1	386	0	148
2	372	0	170
3	322	2	220
0	478	2	68
3	373	1	185
0	388	2	116
3	297	1	253
3	402	2	152
2	415	0	141
2	408	1	150
2	466	1	84
2	486	3	56
2	482	1	66
2	511	0	19
1	524
0	546	3	6
2	491	0	35
1	374	0	184
3	496	1	38
3	421	1	65
2	344	0	200
0	299	2	245
1	322	2	222
3	474	1	50
0	377	2	171
2	357	0	189
0	530	2	24
3	534	1	2
2	478	1	72
2	335	3	197
1	372	0	130
2	377	0	165
3	309	1	171
1	554	3	4
2	298	1	228
0	288	1	210
1	512	2	18
0	497	3	29
1	378	0	150
2	510	1	24
2	501	3	13
3	370	1	182
0	292	1	222
0	353	2	201
1	304	2	246
1	290	2	232
0	501	2	25
2	465	0	93
3	431	2	103
0	435	2	123
2	337	0	189
1	324	3	154
0	520	2	18
0	464	3	60
2	410	0	142
0	410	2	152
0	558
1	466	3	92
3	376	1	154
1	506	0	16
2	436	0	94
0	280	2	246
3	508	1	20
1	470	3	82
3	445	2	117
0	451	3	105
0	362	2	196
1	542	2	6
3	298	2	224
2	524	0	4
3	337	2	223
2	433	0	121
2	428	0	128
2	310	0	210
0	352	2	200
3	376	1	182
0	362	2	190
3	306	0	248
0	331	1	209
2	382	1	168
0	438	3	114
1	302	3	214
2	482	1	70
1	370	2	166
0	560
1	510	3	16
0	277	2	273
1	463	0	91
2	484	3	28
2	430	0	122
1	481	3	41
0	289	3	245
1	450	0	96
2	528	0	2
1	320	3	238
3	334	1	212
1	285	3	249
2	478	0	78
2	415	0	147
3	389	1	153
2	464	0	66
1	452	3	86
3	453	2	109
0	286	2	228
3	409	0	145
1	548	3	4
0	554
3	430	0	124
3	504	1	56
2	494
2	554	0	6
1	498	3	54
3	528	1	24
3	430	1	126
2	522	1	12
1	404	2	136
2	556	0	4
3	428	1	128
2	482	0	72
0	454	2	70
2	486	0	52
1	550	0	6
1	534	0	26
2	514	3	26
1	322	0	160
2	500	0	52
0	476	2	50
0	331	3	205
3	492	0	68
1	423	2	123
2	513	3	41
2	466	0	94
1	414	3	142
3	456	0	104
0	402	2	150
0	562
0	275	2	255
1	368	2	184
3	390	1	160
0	498	2	36
2	465	3	79
1	432	0	80
1	480	3	74
1	436	3	108
1	502	2	34
1	434	3	72
1	476	3	18
3	426	1	82
1	410	3	138
3	344	2	176
2	450	1	84
3	337	1	205
1	303	3	191
0	530	2	28
0	453	1	89
1	468	3	90
1	504	3	38
2	487	0	65
2	498	0	56
0	478	1	74
1	475	2	61
2	321	0	229
3	488	1	68
0	474	1	84
0	414	3	142
0	359	1	195
0	441	3	111
1	353	3	201
2	295	1	267
2	560
2	436	0	122
1	332	2	206
1	521	3	29
1	444	2	114
1	523	3	27
1	350	2	202
3	497	0	63
1	430	3	112
3	351	1	211
2	365	1	163
1	509	3	27
2	528	0	30
0	386	3	152
1	432	3	120
2	394	3	162
1	440	3	102
3	390	1	130
2	375	1	171
1	286	3	272
1	560
2	382	0	128
3	434	1	84
2	434	1	122
3	488	0	64
2	542	0	8
3	260	2	224
1	471	3	73
0	300	2	252
0	358	2	192
3	476	0	62
0	318	3	220
1	281	0	251
0	317	3	207
1	269	2	261
3	283	0	223
1	358	3	192
2	541	0	5
3	361	0	197
2	351	0	199
2	496	0	62
1	450	3	96
3	522	2	32
3	536	1	20
3	526	2	32
0	502	2	28
3	317	1	203
2	510	0	36
3	464	1	74
3	393	2	157
2	454	0	96
1	384	2	166
0	380	2	182
1	299	3	247
3	519	1	31
2	393	0	147
3	283	1	257
2	379	3	139
1	428	3	108
1	511	3	11
3	484	1	74
2	494	1	48
2	554	0	4
2	552	1	4
2	488	0	30
2	412	0	148
0	488	2	58
2	372	0	174
2	514	0	36
0	514	2	36
0	419	1	105
2	441	3	95
2	293	1	237
3	486	1	62
1	528	3	14
1	550	3	10
2	528	3	2
2	429	0	119
0	363	2	151
2	326	0	224
0	314	2	246
2	541	0	3
2	464	3	68
1	495	0	35
0	457	2	81
3	442	2	88
2	530	3	30
3	531	1	5
1	538	3	20
0	552	3	6
2	470	0	84
3	518	1	32
1	546
2	469	0	75
1	508	3	22
2	525	0	1
0	378	2	136
3	315	1	245
3	270	2	266
0	556
0	310	1	246
3	324	1	204
2	497	1	17
2	448	1	100
0	506	2	46
2	512	0	44
1	484	3	70
1	397	3	157
1	322	3	196
0	344	3	198
3	552	0	8
0	542	2	18
3	342	1	204
3	296	2	248
0	318	2	224
3	278	1	242
1	548	3	10
1	454	3	98
1	428	3	130
2	280	0	266
2	374	0	168
2	382	0	132
1	518	3	40
1	438	2	120
2	374	0	186
1	364	3	188
3	560
1	332	0	226
1	407	3	93
2	492	1	62
1	373	3	167
2	502	0	60
3	321	1	237
3	507	0	9
0	534	2	8
1	536	0	20
1	410	2	150
1	524	3	32
1	556	2	2
0	536	2	20
3	251	1	247
3	470	2	54
2	285	0	215
1	524	0	28
3	358	2	200
3	365	1	161
2	539	3	17
3	515	1	31
0	528	2	30
2	466	0	50
2	377	1	157
0	556	1	2
3	530	0	28
3	294	0	242
3	363	1	183
2	532	0	22
1	530	0	28
0	287	3	257
2	527	0	31
1	282	3	268
3	340	2	190
2	387	0	137
3	315	1	233
0	438	1	118
3	282	1	274
2	434	0	104
0	440	2	120
2	436	3	116
2	416	0	102
2	534
2	422	1	120
0	352	2	210
2	554	0	2
1	305	3	251
2	532	1	2
2	314	0	228
2	290	1	238
1	422	3	136
1	297	0	265
2	327	3	223
2	416	0	82
3	528	1	24
0	453	2	87
2	542
0	299	2	253
1	478	3	50
1	288	3	194
1	339	3	211
1	485	3	31
3	334	0	226
1	490	3	64
3	512	1	40
0	282	3	274
3	442	0	114
1	524	3	36
1	408	2	96
2	292	1	236
2	512	1	44
0	472	2	62
2	466	0	40
1	483	0	23
1	438	3	94
2	384	1	160
1	365	3	151
1	415	3	133
3	262	2	242
3	360	1	192
2	366	1	180
3	398	1	146
1	333	0	225
0	280	2	202
0	425	3	133
0	429	2	107
2	435	0	113
2	338	0	202
1	481	0	79
3	300	1	200
0	512	3	44
1	488	0	62
2	315	0	241
3	293	1	263
1	313	2	221
1	434	3	84
0	443	2	69
1	364	0	196
0	290	2	266
0	397	2	149
3	446	1	100
3	358	1	202
0	406	2	138
1	417	3	121
2	494	1	28
3	336	1	158
2	530	0	24
2	478	3	54
3	451	1	99
1	355	3	203
2	515	3	47
0	413	2	135
2	492	0	44
2	512	0	44
2	494	0	56
3	277	0	265
1	270	0	224
3	426	2	112
2	448	0	106
1	427	3	121
2	296	0	252
2	295	0	247
1	462	3	90
3	285	1	237
0	494	3	66
1	444	2	112
2	355	0	203
1	510	2	44
2	431	1	117
1	408	3	100
1	518	0	36
3	422	1	118
3	426	1	132
1	401	3	157
1	517	2	31
2	530
2	451	0	103
2	518	3	12
2	529	3	29
0	358	2	154
1	436	3	110
2	497	0	61
0	311	3	207
1	301	3	245
2	302	1	252
0	440	2	102
1	375	3	163
2	403	0	119
2	500	3	52
1	552
2	284	1	252
3	296	2	206
3	467	1	67
3	490	0	36
1	442	3	108
2	530
0	492	2	64
1	306	0	186
3	560
3	323	1	205
1	458	3	86
0	543	2	7
2	306	0	252
3	443	1	95
0	481	2	81
1	350	3	170
1	480	2	50
0	497	2	3
2	272	1	260
1	428	3	118
3	432	1	120
1	359	3	149
2	353	1	203
3	350	1	212
0	399	1	155
3	354	2	178
3	362	2	176
3	353	1	179
1	395	3	133
2	492	0	62
1	450	3	62
1	348	3	200
2	296	0	256
3	328	1	232
2	440	3	88
1	308	3	214
1	423	3	111
2	286	3	232
2	476	0	76
0	376	2	178
0	358	2	184
0	406	3	142
1	444	3	104
2	332	0	192
3	266	1	238
1	554
0	472	1	64
3	552	1	8
2	544	3	16
0	540
3	349	0	207
2	542
2	345	1	203
1	270	3	230
3	324	1	230
2	548	0	6
1	476	3	80
0	546	2	14
3	552	1	4
2	532
0	538	3	12
3	396	0	136
1	552	3	2
1	456	3	96
2	514	1	40
3	299	1	251
1	528	3	28
0	286	2	224
3	449	1	75
3	380	0	174
1	524	0	36
2	386	1	168
3	386	1	172
2	362	3	154
3	552	1	8
0	374	2	174
0	376	2	106
3	486	2	34
2	526	0	26
2	548	3	6
3	548	1	8
2	408	1	152
1	318	3	238
0	280	2	250
2	280	0	214
2	493	0	3
1	512	0	14
3	496
3	554
0	420	2	94
0	435	2	125
2	410	0	120
0	446	2	100
1	488	3	68
3	509	2	49
3	465	0	73
2	387	0	125
1	492	3	18
0	504
3	360	1	192
2	263	0	259
1	486	3	40
0	381	2	159
2	453	1	107
1	412	2	116
3	266	1	258
3	431	1	127
0	350	2	180
2	396	0	158
2	486	1	48
2	548	0	8
1	338	3	196
3	446	1	78
1	522	2	34
2	366	0	180
1	464	0	80
1	389	3	173
1	335	0	183
2	300	1	228
1	301	3	235
1	472	3	78
2	396	0	110
2	436	0	86
0	380	3	182
0	516	2	34
0	552	3	6
0	538	2	18
2	354	0	202
2	314	0	196
2	312	1	218
0	508	3	46
1	448	2	98
3	278	2	232
0	349	2	203
2	537	3	19
2	358	0	198
1	360	3	198
3	447	1	111
2	528	1	24
0	520	2	38
2	286	0	246
1	492	3	64
1	560
1	438	2	120
3	448	2	114
2	352	3	202
2	546	0	10
1	301	3	243
0	345	2	197
2	316	0	210
0	348	2	198
2	492	0	64
2	404	1	128
1	510	0	42
1	286	3	260
1	421	3	105
1	415	3	103
1	305	3	189
0	308	3	234
2	498	0	10
3	540	1	18
1	556	0	4
1	402	2	148
3	323	1	193
1	542	0	18
1	440	3	82
1	401	2	95
0	285	1	273
1	435	2	81
3	459	1	81
3	481	0	41
2	379	0	179
2	299	0	229
2	410	0	132
2	421	0	131
2	488	0	54
1	560	3	2
1	478	3	66
1	350	0	176
0	356	3	194
3	560
1	406	3	120
3	344	0	202
3	534	2	20
1	528	3	26
1	536	0	20
1	532	2	24
1	287	3	221
0	469	2	87
2	518	1	34
1	261	3	261
3	282	1	258
1	296	3	266
3	536	1	22
1	550	0	2
2	554	1	4
2	289	0	263
2	558	3	2
2	548	1	2
1	535	3	1
2	560	0	2
3	550	1	2
2	449	0	91
1	344	3	216
1	394	3	140
1	310	3	228
2	517	1	39
0	498	2	50
1	392	3	156
1	500	3	54
0	380	2	180
3	378	0	138
0	332	1	228
2	430	0	118
3	453	1	89
0	472	3	42
3	314	1	244
2	314	3	244
3	462	2	92
2	315	0	239
1	391	3	145
3	362	0	162
1	521	3	33
1	482	3	68
3	473	0	53
2	391	1	169
1	391	0	155
0	344	2	194
1	554	3	8
2	365	1	193
1	510	0	4
3	339	1	223
1	412	3	126
2	432	1	126
1	456	3	90
1	536	3	16
0	340	3	156
0	510	3	32
3	460	1	80
1	426	3	132
0	301	2	259
3	473	2	83
3	456	2	52
1	508
2	509	1	49
2	533	0	3
1	407	3	91
2	492	3	20
1	356	3	196
2	385	1	139
1	476	3	66
1	532
0	523	2	3
0	496	2	34
3	308	1	216
3	291	1	231
1	425	0	113
2	312	3	208
3	442	1	118
1	438	3	104
2	353	0	193
2	510	1	34
1	406	3	146
2	332	0	210
3	277	1	235
2	452	3	34
1	550	3	8
2	503	0	49
2	514	0	4
3	444	1	72
0	528	2	30
2	270	0	256
1	316	2	226
1	490	2	66
3	414	2	142
1	265	2	227
2	472	0	86
2	397	3	149
2	329	0	191
0	454	2	56
1	389	0	173
0	344	2	182
1	396	3	146
2	395	0	119
2	376	0	160
1	336	0	222
3	379	1	163
1	510	0	46
0	544	3	14
0	460	2	82
1	498	3	50
2	466	0	90
3	460	0	92
3	299	1	263
0	342	2	206
2	450	3	92
1	355	3	201
2	313	3	223
2	548	0	6
1	383	3	109
1	453	0	85
2	409	3	129
1	480	0	50
3	510	1	46
2	409	1	95
1	401	2	135
1	359	3	185
0	374	2	170
1	408	3	136
0	458	3	90
1	395	0	119
0	486	2	64
3	413	2	139
2	299	3	241
1	288	2	264
0	418	1	136
2	464	0	72
1	475	3	73
2	469	3	85
2	334	1	216
3	443	1	95
2	302	3	234
1	540	0	10
1	514	3	42
1	434	2	120
2	288	1	262
3	396	1	114
2	288	1	224
2	426	0	126
2	306	0	242
3	302	2	248
3	488	1	40
3	290	1	234
2	548	1	10
2	432	1	60
1	347	3	213
2	347	1	179
0	409	2	71
2	347	0	211
0	322	3	224
1	424	2	60
0	260	1	244
1	340	0	188
3	317	1	245
0	510	2	2
1	411	0	139
1	485	3	23
2	548
1	352	0	204
2	348	0	194
1	500	3	50
1	484	3	72
2	544	1	16
2	319	3	225
2	309	0	227
1	476	0	62
3	288	1	266
3	441	2	63
3	440	1	54
1	397	2	125
2	401	1	159
1	554	3	4
0	357	2	191
0	489	2	33
2	372	3	186
2	354	0	124
3	391	0	157
2	534
1	490	2	32
3	409	1	83
1	405	3	75
1	480	2	74
1	503	3	11
3	484	2	78
0	434	2	78
3	433	1	111
2	526	0	26
3	484	0	78
1	538
2	433	3	111
1	353	3	201
2	353	1	181
0	349	1	191
0	340	2	200
1	534
1	340	3	210
1	376	3	180
3	525	1	37
2	394	0	166
3	482	1	72
3	487	1	75
3	448	1	74
1	472	0	74
1	484	3	72
1	484	3	70
3	460	2	64
0	458	2	100
0	410	2	72
3	556	1	2
2	450	3	100
3	398	1	140
1	484	3	64
1	382	3	154
2	447	0	101
0	373	2	179
2	437	0	111
2	441	0	101
2	450	0	112
1	340	2	190
1	342	3	214
1	471	3	43
2	482	3	68
2	365	0	195
3	481	1	77
2	380	0	138
2	538	0	14
2	329	3	225
2	476	0	48
2	538	0	16
3	314	1	240
2	377	0	183
2	526	0	26
1	498	3	54
2	486	1	70
0	542
0	404	2	158
2	349	0	211
3	472	0	58
2	458	3	68
0	354	2	176
1	520	3	26
3	435	1	121
1	548	3	6
3	490	0	44
1	500	3	36
0	526	1	26
2	470	3	84
3	516	1	44
1	388	3	134
3	372	0	182
2	468	1	48
3	450	1	112
2	436	0	102
1	411	0	117
2	365	0	173
2	516	3	2
3	356	1	140
2	550
1	309	0	249
1	372	3	182
3	556	0	2
3	500	1	50
1	528	3	34
0	428	3	128
1	288	0	206
3	434	1	122
1	315	0	231
1	422	3	134
3	525	0	29
0	457	2	103
0	478	2	84
2	348	1	206
2	394	3	158
0	519	2	31
3	430	1	126
0	412	1	112
0	388	2	142
1	438	0	118
1	428	0	78
2	535	1	13
0	465	2	95
2	438	0	106
1	485	3	61
1	386	3	170
1	484	3	18
0	540	2	18
0	520	2	26
3	397	1	165
1	508	0	40
2	489	0	69
3	360	2	188
1	402	2	100
1	470	3	88
2	498	1	48
0	452	2	86
1	479	0	63
2	542	3	18
1	552
1	318	3	218
1	516
2	516	0	18
2	518	0	28
2	522	0	38
2	361	0	171
1	532	3	18
0	536	3	24
0	498	3	50
3	520	1	34
2	346	1	194
0	406	2	150
1	390	3	142
0	544	2	14
3	467	1	79
3	472	1	72
2	560
2	339	0	211
2	442	3	118
2	343	0	215
1	498	0	54
3	546	1	2
2	546	1	12
3	347	0	203
1	494	3	62
1	530	3	6
3	524	1	14
0	498	2	50
1	301	3	245
0	500
3	281	2	261
1	380	3	176
2	344	0	204
3	307	1	251
1	492	2	36
0	272	2	266
1	408	0	140
2	552
1	492	3	48
2	536
2	444	0	118
1	546
3	518	0	38
2	552
1	554	3	6
2	352	0	146
1	369	0	181
2	459	0	93
1	428	3	114
1	552
3	440	0	120
1	441	2	99
3	447	1	111
2	406	1	148
2	440	1	106
2	303	1	249
0	550
2	492	0	58
1	294	2	256
1	443	2	111
2	494	1	62
3	390	0	164
0	409	2	149
3	556
1	350	3	178
3	374	1	178
1	280	0	268
3	335	1	223
1	398	3	154
2	460	0	92
1	534	3	20
2	459	1	95
2	457	0	105
2	326	0	232
1	544	3	16
1	516	3	16
2	530	1	30
1	395	0	147
0	307	1	235
3	536	1	6
3	272	1	262
3	275	1	225
1	402	2	120
1	370	3	182
1	448	2	78
3	434	2	102
0	322	1	234
3	518	2	42
1	298	3	224
2	378	3	142
1	556
1	326	2	234
3	436	1	90
1	530	3	26
0	346	2	208
0	442	2	102
3	488	1	6
2	544	0	12
1	339	3	205
2	386	0	136
1	486	3	68
2	424	1	136
3	396	1	154
1	352	0	178
0	432	2	128
3	454	1	102
3	532	1	6
0	504	2	42
2	325	0	231
2	292	3	250
1	346	3	170
2	273	1	271
2	453	0	103
0	280	2	258
1	361	0	199
3	386	1	162
0	450	2	106
0	374	2	134
1	552	3	2
1	383	0	121
0	292	1	226
2	438	0	104
2	446	0	94
1	341	3	209
1	356	3	192
2	469	1	77
0	353	3	193
2	366	1	166
3	478	0	40
3	462	0	100
3	300	1	226
3	304	1	234
3	315	1	227
3	516	1	40
1	476	3	58
3	486	0	42
1	355	3	181
0	382	2	166
1	327	3	219
3	410	1	140
1	478	3	66
1	412	2	140
2	524	3	10
0	350	2	168
3	404	1	112
2	300	0	250
1	548	3	6
2	349	0	159
1	425	3	133
1	372	2	164
3	312	1	242
3	273	1	271
1	462	3	32
0	422	3	80
3	450	1	104
3	270	0	256
1	524	3	14
3	530	1	14
1	346	3	196
2	412	1	142
3	480	1	50
3	434	2	94
2	290	3	270
2	482	0	46
2	560
1	287	0	247
1	502	3	54
3	520	1	36
3	372	1	180
1	293	0	255
2	342	0	174
1	359	3	201
3	482	1	34
0	522	3	34
1	343	3	155
1	506	3	48
2	476	1	42
3	426	1	102
1	464	3	92
2	446	1	102
1	376	3	108
2	538	1	10
1	319	3	233
2	544
2	532	0	22
2	478	0	62
3	360	1	168
2	560
2	456	3	70
2	276	1	274
2	432	0	120
2	422	0	134
0	271	2	241
2	495	3	51
3	365	0	195
0	510	2	46
2	409	3	147
2	334	3	224
3	558	1	2
1	556	3	2
2	370	0	184
3	314	1	182
1	560
0	482	3	48
2	328	3	228
0	484	2	76
2	382	1	136
1	524	0	2
3	500	2	56
1	334	3	224
1	522	3	38
2	522	0	34
3	431	1	121
3	416	1	138
0	309	2	225
0	492	2	60
2	326	0	168
0	269	2	229
0	474	2	80
1	516	2	42
3	530	1	8
2	526
1	440	3	72
0	526	2	32
3	469	1	71
1	344	3	166
1	450	3	68
1	516	3	10
3	351	0	207
1	373	0	189
0	294	1	214
3	508	0	42
2	385	1	177
0	256	3	256
1	271	0	265
2	484	0	48
3	275	1	265
3	277	1	271
3	362	2	194
1	484	0	40
2	500	1	26
2	480	1	42
2	276	1	222
1	317	3	239
1	308	2	246
1	556	3	2
1	528	3	20
3	323	1	203
0	324	2	206
3	393	0	167
2	463	3	89
2	520	0	32
1	321	3	239
2	468	0	90
2	522	1	38
0	314	3	244
3	314	1	240
0	472	1	36
0	544	3	4
0	329	2	207
2	534	0	22
1	397	3	123
0	479	3	59
3	343	1	195
3	296	2	232
3	320	0	242
2	318	0	232
0	287	2	261
1	284	3	224
2	548	1	10
3	458	0	94
1	324	3	226
3	304	1	252
0	320	2	230
2	300	0	230
0	522	2	34
3	438	1	72
1	348	3	168
1	423	3	139
3	399	1	141
0	392	2	150
0	554
3	532	1	18
1	480	2	72
1	470	2	90
1	368	2	190
1	536	3	20
1	552
2	306	0	246
2	345	0	215
2	378	0	184
2	336	0	214
0	399	2	119
1	519	2	37
3	299	0	255
0	418	2	136
1	402	3	134
0	514	2	24
3	524	1	24
2	560
1	446	3	52
0	560
0	492	2	64
3	466	2	94
2	367	1	193
0	472	2	62
3	544	2	18
3	516	2	44
0	328	1	208
2	435	0	99
2	520	1	40
2	526	3	20
1	324	3	182
1	318	2	236
2	315	0	229
2	436	3	122
1	360	3	202
3	356	1	188
0	560
1	302	3	256
3	299	2	253
3	329	1	223
3	398	2	162
1	400	3	140
3	420	1	132
2	446	0	112
0	393	3	163
0	297	2	213
0	498	2	4
2	355	3	193
2	344	0	194
1	352	0	154
3	487	2	41
3	287	2	267
0	550
2	435	0	119
2	510	0	8
0	282	2	270
3	494	1	60
3	457	1	87
1	300	3	240
1	376	3	164
3	382	0	116
1	484	3	60
0	496	1	60
1	544	2	14
3	264	0	244
0	340	1	214
3	338	0	210
1	379	0	167
0	463	2	85
1	461	2	65
2	542
3	298	0	240
1	460	2	92
0	346	2	186
0	356	3	196
0	482	2	72
3	417	1	109
3	529	1	7
0	470	2	64
3	297	0	239
2	481	0	63
0	514	1	18
0	520	3	28
3	353	0	207
0	292	2	248
3	464	1	88
1	478	3	74
2	446	0	58
3	443	1	117
0	528	3	14
0	409	2	145
1	321	3	213
3	318	1	228
1	480	3	30
2	410	3	136
3	382	2	148
1	520	3	32
0	422	2	138
2	316	1	232
0	282	1	218
2	397	0	147
1	306	0	236
3	422	1	120
2	517	0	5
3	307	1	227
1	346	3	196
2	408	1	134
3	301	1	261
1	516	3	16
1	536	3	18
1	534	3	18
0	278	1	272
0	320	2	238
1	337	3	217
1	454	3	102
0	360	2	146
1	466	0	92
3	460	0	96
1	538	3	22
0	518	2	42
1	344	3	206
2	358	0	194
1	320	0	228
0	418	3	138
3	320	1	230
2	494	0	48
1	326	3	220
2	498	0	50
1	438	3	122
0	330	2	212
2	472	3	84
2	382	0	110
0	526	2	36
2	520	3	18
2	534	0	24
0	366	2	184
2	363	0	187
0	354	2	202
3	409	1	153
2	500	0	50
1	378	3	180
1	375	2	183
2	554
2	473	0	83
2	428	1	82
3	429	1	119
1	281	0	259
3	373	2	135
2	427	0	109
1	340	2	220
3	292	1	260
3	450	1	80
0	304	2	256
1	454	3	64
1	310	0	224
3	424	0	68
1	475	2	47
2	356	0	172
1	519	3	13
1	330	3	232
2	446	0	114
1	448	2	98
2	294	3	246
1	458	3	90
1	378	2	176
1	368	3	156
3	294	1	188
0	390	2	142
1	383	3	141
1	436	3	76
1	453	2	55
2	413	0	125
1	339	2	223
1	311	3	251
3	532	1	24
1	372	0	166
1	368	3	154
1	532	2	26
2	390	0	160
0	432	2	114
0	348	2	164
2	400	0	154
2	556	1	2
2	550
1	396	3	154
2	332	0	148
3	496	1	62
0	445	3	109
3	485	2	71
1	534	0	22
1	400	3	154
2	479	3	7
2	301	0	245
0	372	2	186
3	292	1	220
2	337	3	191
3	371	0	183
2	540	1	18
3	508	1	20
2	514	0	32
3	544	1	14
2	458	1	96
3	342	1	136
2	389	0	141
1	544
1	460	3	90
1	504	0	52
3	431	2	125
1	541	2	9
3	336	1	212
2	405	0	147
3	395	1	125
2	300	0	210
2	290	1	254
1	292	3	236
1	471	3	79
2	284	0	238
0	446	3	54
1	504	3	34
2	423	0	131
3	302	0	250
1	339	3	213
2	344	3	208
2	392	3	148
1	482	3	52
0	448	2	76
1	506	3	52
3	504	0	52
2	354	1	170
1	466	3	88
2	307	0	249
1	417	0	109
2	503	0	49
2	344	0	218
0	405	2	151
2	328	1	230
2	522	3	34
1	360	2	160
3	284	1	272
1	419	3	139
3	381	1	171
1	418	3	60
3	527	0	21
3	482	1	30
0	311	3	237
2	282	3	240
0	366	2	192
3	550
2	331	3	223
2	380	3	182
0	452	2	86
1	435	3	105
1	456	2	88
3	451	2	63
2	531	3	25
1	552	3	6
3	542	0	10
2	348	0	208
2	554	3	4
3	326	1	226
0	542	2	16
1	284	2	234
2	478	0	68
1	538	0	6
3	495	1	17
3	466	1	92
1	466	3	88
3	506	1	46
2	482	0	50
3	446	1	106
2	513	1	41
0	456	2	94
3	488	2	32
3	470	1	30
2	534	3	8
2	558
2	284	0	254
1	556	3	2
2	370	0	182
1	349	2	205
2	530	0	26
2	389	3	131
1	492	2	32
2	284	0	234
2	461	1	89
3	518	1	40
1	297	3	259
3	520
3	313	0	231
2	440	3	108
3	325	1	223
0	544	3	16
3	468	2	78
2	305	0	225
0	443	3	115
2	490	0	62
1	318	2	214
0	474	2	58
2	368	0	164
0	408	1	132
0	298	2	214
1	388	0	132
0	498	2	60
3	401	1	145
2	446	0	76
0	305	3	251
1	364	3	188
3	465	1	53
1	497	3	47
0	516	3	12
1	534	3	20
1	524	3	24
0	560
1	560
2	420	0	116
3	512	1	24
1	498	0	60
3	376	2	134
2	404	0	148
0	438	2	112
1	267	3	231
2	530	3	6
3	376	1	160
0	401	3	141
2	413	1	119
2	538	0	8
2	466	3	74
2	489	0	27
1	526	3	28
0	310	2	248
2	431	1	83
3	335	1	197
2	364	0	194
1	370	3	172
2	334	1	210
1	446	3	106
2	414	1	132
1	471	0	83
0	428	2	104
1	415	3	95
1	430	3	120
3	317	1	235
0	329	2	205
1	379	3	183
0	431	2	109
0	417	1	119
0	361	3	179
1	465	3	77
0	341	2	209
2	306	0	256
2	523	0	31
2	409	0	135
0	286	2	262
1	522	2	8
2	419	0	85
3	457	0	99
1	500	3	48
3	280	1	218
0	370	2	180
2	292	0	248
0	346	2	164
2	415	0	147
1	356	3	140
0	346	2	184
0	416	2	100
0	526	2	2
2	518	3	18
1	386	0	112
0	522	3	28
1	299	0	243
3	550	1	4
2	534	0	2
2	402	0	132
0	460	2	74
1	289	3	197
3	372	1	184
3	430	1	106
0	478	2	80
1	381	3	181
1	506	3	50
1	346	3	176
3	378	2	176
3	440	1	116
2	522	3	12
1	470	0	70
0	314	2	224
0	297	2	251
1	316	3	238
2	471	0	77
1	474	0	76
3	417	1	135
1	452	3	104
2	362	1	156
1	529	3	1
3	498	2	40
3	467	1	65
0	403	3	137
1	349	3	203
1	436	3	102
2	332	0	218
1	316	3	244
2	486	0	56
3	325	1	231
2	478	3	52
1	445	0	101
1	304	3	246
2	305	0	239
1	406	3	124
3	405	0	131
2	443	0	115
0	496	2	48
0	448	1	60
2	319	0	217
1	256	3	226
3	314	1	226
3	326	1	224
3	466	0	88
1	484	3	60
2	452	3	104
1	441	3	107
2	344	0	214
1	286	2	242
2	280	1	256
3	486	1	72
1	411	0	115
1	476	0	76
2	282	1	262
1	450	3	82
1	516	2	38
1	404	3	154
1	468	3	88
2	325	1	203
1	303	3	181
0	337	2	207
3	417	1	97
3	374	1	110
3	344	1	200
0	284	3	274
2	384	0	158
0	452	2	102
1	396	3	142
1	522	3	36
0	440	3	94
1	500	3	44
1	486	0	44
1	516	2	42
2	412	3	92
0	404	1	150
0	393	2	167
1	490	3	48
0	482	2	74
3	298	1	250
1	390	2	146
3	502	1	50
1	484	2	30
3	540	0	8
1	560
1	338	3	206
2	508	1	14
1	516	3	14
3	406	1	154
3	536	0	22
3	520	1	38
1	552	2	8
0	354	2	178
3	358	1	122
1	380	3	120
1	272	3	236
1	442	3	116
0	402	2	154
2	470	0	82
3	444	1	112
0	498	3	8
1	502	3	44
1	523	3	31
2	478	0	52
0	432	3	124
1	352	3	208
0	290	2	264
2	558	0	2
0	404	2	126
3	496	1	56
3	362	1	196
3	354	1	184
2	343	0	197
2	538
2	345	0	215
3	410	1	150
1	322	3	240
2	423	3	131
3	390	1	134
1	389	3	165
3	455	2	107
3	409	1	151
1	518	0	34
1	383	3	175
1	388	3	166
1	527	3	29
0	347	3	195
0	287	1	271
3	542	2	16
2	530	3	18
3	524	2	14
2	538	0	14
0	458	2	70
1	441	3	111
3	413	2	129
1	282	3	278
3	425	0	105
2	463	3	75
2	514	1	42
2	546	0	10
0	484	2	42
1	552	0	8
1	480	3	66
1	548	3	10
0	498	1	44
1	562
1	318	2	172
1	376	2	178
1	452	3	94
0	314	2	246
1	290	3	230
3	315	1	245
0	332	2	216
2	550	0	8
1	341	3	209
2	411	3	99
1	289	0	215
3	356	1	188
3	298	1	254
0	280	2	266
1	361	2	193
1	504	0	28
1	324	3	192
3	353	2	199
2	310	3	236
1	306	3	206
1	490	3	44
3	378	1	180
1	502	0	56
2	546	1	10
1	306	3	244
0	396	2	158
3	286	1	270
2	552	0	2
3	380	2	174
1	384	0	150
2	394	0	130
1	366	2	186
2	496
1	362	0	178
2	386	1	158
3	517	1	19
1	521	2	31
1	365	0	129
0	319	2	191
0	438	3	82
0	311	2	241
2	514
0	332	2	216
1	362	3	196
1	376	3	120
2	386	3	174
1	424	3	58
2	482	0	72
1	418	2	134
2	456	3	74
1	336	0	220
3	429	1	103
1	450	0	106
1	458	0	98
1	384	0	168
3	466	1	92
0	382	3	172
0	464	3	88
1	554	3	4
3	554	1	8
0	351	2	205
3	422	1	108
1	425	3	115
2	369	1	175
2	284	0	226
2	312	3	214
3	530
3	338	0	214
2	480	3	78
3	512	1	46
3	489	1	57
2	548	0	6
0	560
2	292	3	210
3	552
3	502	2	54
2	478	0	42
3	544
2	526	3	22
1	560
3	494	2	46
2	502	3	44
3	523	1	9
2	548
3	408	1	142
3	284	1	272
1	506	3	52
2	370	3	188
1	325	0	237
0	337	2	179
2	290	0	242
3	312	1	208
1	459	0	101
1	474	0	80
0	493	2	53
1	538	3	8
2	372	0	170
3	448	2	104
0	310	1	238
1	540
1	455	3	95
1	546
0	414	3	140
1	459	3	101
1	414	3	136
1	530	2	26
2	496	1	10
1	474	3	70
2	456	0	76
0	478	3	64
1	558
3	313	0	203
1	328	3	226
1	283	0	261
1	383	0	175
1	437	2	115
2	486	0	48
3	440	0	82
2	346	0	200
1	428	3	124
3	344	1	196
2	475	0	53
0	314	3	246
1	463	0	53
1	528	3	24
1	398	3	160
2	548	0	10
0	336	2	188
1	536	2	2
3	458	1	102
0	318	1	194
0	394	2	104
2	463	0	63
3	496	1	58
0	394	2	138
0	488	2	58
0	372	2	182
2	556
1	370	3	180
2	556
1	388	3	104
3	367	1	185
0	363	2	191
3	276	1	242
0	509	2	45
1	480	3	44
2	388	0	144
2	406	0	90
1	528	0	26
1	482	3	68
1	516	3	36
3	463	1	85
1	290	3	224
3	382	1	172
1	330	0	230
0	312	3	244
2	428	1	124
0	462	1	86
2	270	0	268
2	276	0	250
2	456	1	26
0	289	2	265
0	271	2	271
1	257	3	255
2	272	3	214
2	518	0	6
3	444	1	84
0	414	2	116
3	366	1	160
2	363	1	195
2	298	0	262
1	462	3	50
2	438	0	86
3	359	1	177
2	288	0	256
0	368	1	166
1	486	2	70
3	280	1	268
3	292	1	216
2	304	0	246
2	476	0	56
0	346	1	214
0	314	2	244
2	448	3	104
2	324	3	234
3	396	1	160
0	494	2	62
2	546	3	6
1	530	2	18
0	350	2	186
0	330	2	216
2	284	1	248
1	560
1	332	0	230
3	460	2	102
0	241	2	241
0	274	2	230
2	410	1	124
1	374	0	164
0	544	2	12
3	444	1	112
0	284	1	260
3	423	1	133
2	322	1	170
2	554	0	2
0	422	1	132
2	548	0	6
3	508	0	14
0	341	1	213
2	444	0	106
1	446	3	112
3	424	0	124
1	536	3	14
0	406	1	104
0	437	2	103
1	306	0	208
3	320	1	236
0	341	1	191
1	416	0	120
2	433	1	99
3	443	1	105
1	406	0	106
3	306	2	232
1	396	3	166
3	550
0	361	1	191
2	360	0	176
0	500	1	28
3	289	1	255
2	380	0	156
0	354	2	196
3	480	1	26
2	534	0	22
2	291	0	255
2	469	1	87
3	455	2	89
0	558
0	376	1	156
2	526	1	2
2	320	3	238
0	394	2	142
0	324	2	230
1	418	3	128
2	376	1	152
2	390	0	126
2	333	1	197
2	402	3	148
3	468	1	82
0	452	1	78
0	440	2	80
2	256	3	242
1	523	3	7
1	285	3	277
2	373	0	153
2	393	0	141
0	426	2	120
3	442	0	110
3	422	1	88
1	500	3	58
3	342	1	218
2	346	3	212
3	441	1	113
1	444	3	114
2	340	3	212
2	412	0	128
1	458	0	76
1	298	3	220
0	320	2	188
1	483	3	69
3	494	0	30
1	285	0	275
0	318	2	176
0	435	2	125
0	432	2	122
0	324	2	194
3	466	1	88
2	456	1	80
3	334	1	194
2	356	3	196
2	423	0	119
0	520	2	18
3	554
3	311	1	249
2	289	0	253
1	440	3	64
1	452	3	60
2	486	1	72
2	396	0	158
2	554	0	2
2	388	0	160
1	482	3	70
1	536	2	24
1	432	3	120
3	430	1	124
2	426	1	122
2	428	0	114
3	275	1	271
1	417	3	131
0	490	2	36
1	512	3	44
1	516	0	36
1	446	3	80
2	313	0	217
3	429	1	105
1	325	0	195
0	279	2	265
2	482	3	68
0	312	2	234
3	284	1	254
3	520	1	4
3	308	1	248
0	460	2	98
1	474	3	74
0	318	2	210
1	546	0	8
2	488	0	68
1	394	3	160
2	315	0	241
0	264	2	252
2	460	0	92
2	350	0	196
3	410	1	130
1	491	3	65
3	352	1	162
1	368	3	192
2	479	3	1
3	296	1	258
3	373	0	175
2	298	0	250
2	371	3	175
1	480	3	76
0	298	3	248
3	540	0	2
2	512	1	22
0	516	1	28
0	489	2	61
3	378	2	172
2	414	1	134
2	378	0	174
1	403	3	149
2	352	1	202
1	326	3	226
2	502	1	56
2	538	1	14
1	536
3	450	1	90
2	460	3	54
0	418	3	98
0	380	1	158
1	342	2	192
2	487	1	65
3	444	0	110
3	330	2	208
2	528	0	30
1	432	3	112
1	536	3	22
0	426	2	120
0	546	2	12
0	394	1	162
3	310	2	252
2	456	0	102
3	416	1	120
0	410	1	132
1	552	0	2
1	524	3	30
2	328	0	198
1	556
2	483	0	59
3	443	1	95
0	326	2	210
2	459	0	103
0	386	3	168
1	350	3	196
0	286	3	218
2	428	3	114
1	454	3	74
2	300	3	244
0	412	2	140
0	540	3	16
1	470	3	76
2	528	1	6
2	508	1	44
1	524	0	30
0	448	2	104
2	272	3	264
2	320	1	220
2	286	3	254
1	514	3	22
0	272	2	248
1	340	3	204
3	313	1	225
0	334	2	218
2	460	1	96
1	388	3	160
2	431	1	129
3	434	1	120
2	330	3	184
2	336	0	210
0	320	2	218
2	534	1	14
0	540	2	14
2	366	0	182
0	456	3	72
2	412	1	138
3	470	1	74
0	487	3	25
3	326	1	190
1	505	3	43
3	390	1	168
0	292	3	264
0	446	3	106
1	427	2	117
1	350	3	176
2	520	3	38
0	333	2	213
0	288	2	238
1	401	0	97
3	326	2	224
3	542	1	14
1	406	3	144
1	526	3	8
1	509	3	53
0	332	3	162
2	312	0	204
0	258	2	220
2	321	0	237
3	344	1	202
0	374	3	176
0	328	2	220
3	247	1	233
1	398	3	108
2	393	0	125
0	485	2	67
2	452	0	96
1	352	3	200
0	309	2	211
0	264	2	240
0	487	2	69
3	550	1	8
1	550
3	552
1	554
2	558	3	2
1	490	3	68
2	520	1	16
1	470	3	38
1	526	3	2
1	520	2	30
2	538	0	2
1	352	3	162
1	547	3	3
1	376	0	180
0	365	2	181
3	272	1	232
1	496	3	60
1	410	3	96
2	500	3	54
1	390	0	158
0	552	2	6
2	272	0	270
1	483	3	41
2	552
1	478	3	82
1	458	0	90
3	504	2	54
2	431	0	129
1	460	0	80
1	524	3	28
0	406	2	154
2	471	1	67
3	505	0	55
2	406	3	144
1	323	2	217
3	393	1	129
2	375	0	185
2	489	1	65
0	409	2	151
2	417	0	145
1	456	0	62
1	560
2	394	0	84
1	550
1	410	0	136
0	412	2	142
3	420	1	130
0	407	2	99
0	296	1	256
3	298	0	212
0	337	2	201
0	287	3	255
0	392	2	126
2	343	0	215
1	520	3	38
0	512	2	26
3	383	2	157
1	420	3	124
1	358	0	168
1	377	3	135
2	334	0	214
1	424	3	74
1	437	3	107
0	369	2	169
1	408	3	138
1	472	3	54
3	342	2	208
1	344	3	194
0	276	1	274
1	508	2	46
3	285	1	277
1	459	2	99
0	469	2	69
2	288	0	208
3	321	1	235
1	402	3	144
2	480	3	74
1	454	3	94
3	347	1	215
2	501	1	61
1	351	2	201
1	362	2	186
2	518	0	42
0	284	3	244
1	366	3	182
0	322	2	228
2	554	0	4
0	326	2	226
3	530	1	30
1	280	3	278
1	395	3	139
2	433	3	117
0	262	2	244
1	276	3	270
1	432	3	124
0	406	2	108
1	548	2	6
1	556
0	440	3	116
0	408	2	118
0	372	2	186
0	348	2	188
3	356	1	204
0	380	2	174
1	536	0	24
2	462	0	98
2	362	1	172
3	296	0	256
0	466	2	76
2	466	3	74
1	526	3	30
3	318	1	236
1	512	2	24
1	372	3	136
2	410	0	144
2	406	0	128
2	268	0	254
0	416	2	142
2	520	0	10
3	349	1	171
2	506	0	52
2	544
2	444	0	80
2	526	0	32
2	444	0	102
2	382	0	176
3	442	1	112
1	464	3	92
0	338	2	218
1	381	0	119
1	338	3	224
3	472	1	76
3	472	1	76
3	298	0	240
1	492	2	70
2	304	1	206
1	312	3	226
0	378	2	166
1	522	3	26
2	437	3	65
0	524	1	2
2	540	3	20
1	522	0	36
0	506	3	40
2	378	3	168
0	314	2	246
3	364	1	180
2	304	3	238
3	360	0	188
1	436	0	96
0	479	3	69
3	409	2	107
2	554
2	500	0	52
3	394	2	108
2	366	3	184
0	481	2	67
1	556
3	313	1	239
1	389	3	115
1	278	3	270
0	391	2	171
2	554	0	6
3	318	1	236
3	528	1	32
2	289	1	261
0	406	1	144
3	398	1	114
3	405	1	107
1	323	3	217
1	284	3	260
1	342	3	136
1	488	3	24
2	385	0	121
0	430	2	116
1	548
1	425	2	121
1	370	3	130
2	512	1	6
2	540	1	14
1	399	0	125
3	327	2	185
1	378	3	172
2	546	1	4
1	524	3	20
3	472	0	62
2	490	1	14
2	456	0	94
3	468	1	56
2	456	0	102
1	556	3	4
2	418	3	128
2	522	0	34
2	460	1	96
2	522	1	32
2	438	0	106
3	331	1	221
1	278	2	266
0	300	2	250
2	486	3	64
2	326	1	220
3	512	1	36
3	292	1	252
2	357	0	193
2	312	1	214
2	560
2	424	3	64
0	464	2	88
1	350	3	198
1	354	0	200
2	362	0	196
2	348	0	190
3	527	1	25
1	413	3	149
1	470	0	64
3	265	0	257
2	546
2	544
1	332	3	216
1	470	3	90
2	460	3	96
1	510	3	46
3	388	1	164
0	540	2	14
1	506	3	28
3	477	1	77
1	450	2	78
2	470	1	80
1	488	0	32
0	262	3	238
1	536
1	522
1	544	3	12
1	508	2	40
1	328	3	212
3	266	1	258
3	368	1	182
3	394	2	152
2	534	0	28
2	299	3	235
0	417	2	135
3	302	1	224
0	350	3	172
0	444	1	80
2	384	0	138
0	450	3	90
2	449	1	97
0	490	1	64
2	444	0	108
1	544
2	507	0	25
3	436	1	110
1	510
2	554
2	434	0	62
2	300	1	252
1	462	2	78
1	462	3	78
0	496	2	46
3	430	1	94
2	438	0	98
3	552	2	8
2	298	0	254
2	295	1	263
2	310	0	222
3	402	2	144
2	444	0	100
0	294	2	240
1	307	3	251
3	358	1	200
0	400	2	112
1	345	3	193
1	369	3	189
1	431	2	117
2	486	0	74
0	480	1	76
2	427	1	117
3	472	1	74
1	533	2	1
3	484	2	78
2	483	0	71
2	522	3	34
2	560
1	461	0	91
1	462	0	62
1	554
1	361	3	183
2	274	1	270
2	464	3	90
1	324	3	166
2	315	0	171
2	311	0	241
1	392	0	142
2	439	1	117
2	512	0	44
3	496	0	60
0	424	3	138
0	460	2	68
1	510	3	18
2	476	1	54
0	482	3	76
1	478	2	76
1	438	2	118
1	516	3	42
3	522	0	36
0	412	2	118
0	492	2	64
1	524	3	24
2	452	0	96
2	419	1	129
0	510	2	48
2	396	0	96
0	480	2	80
2	372	0	154
0	362	1	190
2	512	1	42
1	325	3	235
3	520	1	28
3	520	1	40
3	419	2	117
0	337	2	189
2	396	3	156
2	405	0	145
1	270	2	260
0	328	2	218
3	331	2	213
1	353	0	199
1	432	2	126
2	514	1	26
2	384	0	168
0	414	1	122
1	317	0	245
2	488	0	48
3	311	0	241
0	493	2	47
2	534	0	16
3	450	1	108
1	548	3	2
1	480	0	54
0	274	2	270
0	313	2	209
0	344	2	196
2	339	0	213
1	516	2	38
1	394	0	164
2	520	3	34
3	316	1	240
2	451	3	105
1	495	3	25
0	390	2	138
2	368	0	188
1	431	2	129
2	317	0	219
2	442	0	74
2	508
1	524	3	24
2	388	0	132
1	340	0	210
3	312	1	210
1	422	3	84
0	424	3	134
0	548	2	12
1	392	0	160
2	336	0	216
3	336	1	212
2	518	0	42
0	330	2	216
3	349	1	209
3	520	1	10
1	460	3	78
3	431	1	99
3	298	1	190
1	423	0	107
2	374	1	170
1	532
3	309	1	233
2	365	1	175
3	448	1	106
1	286	0	268
0	344	2	214
2	315	1	221
1	510	2	38
1	408	3	144
0	389	2	153
0	488	2	24
3	320	2	200
2	372	1	158
1	505	3	55
2	357	0	191
2	396	0	112
0	489	2	61
2	292	1	230
2	353	1	183
0	540	2	18
2	506	1	30
